{
  "id": 13,
  "name": "weedle",
  "base_experience": 39,
  "height": 3,
  "is_default": true,
  "order": 17,
  "weight": 32,
  "abilities": [
    {
      "is_hidden": true,
      "slot": 3,
      "ability": {
        "name": "run-away",
        "url": "https://pokeapi.co/api/v2/ability/50/"
      }
    },
    {
      "is_hidden": false,
      "slot": 1,
      "ability": {
        "name": "shield-dust",
        "url": "https://pokeapi.co/api/v2/ability/19/"
      }
    }
  ],
  "forms": [
    {
      "name": "weedle",
      "url": "https://pokeapi.co/api/v2/pokemon-form/13/"
    }
  ],
  "game_indices": [
    {
      "game_index": 13,
      "version": {
        "name": "white-2",
        "url": "https://pokeapi.co/api/v2/version/22/"
      }
    },
    {
      "game_index": 13,
      "version": {
        "name": "black-2",
        "url": "https://pokeapi.co/api/v2/version/21/"
      }
    },
    {
      "game_index": 13,
      "version": {
        "name": "white",
        "url": "https://pokeapi.co/api/v2/version/18/"
      }
    },
    {
      "game_index": 13,
      "version": {
        "name": "black",
        "url": "https://pokeapi.co/api/v2/version/17/"
      }
    },
    {
      "game_index": 13,
      "version": {
        "name": "soulsilver",
        "url": "https://pokeapi.co/api/v2/version/16/"
      }
    },
    {
      "game_index": 13,
      "version": {
        "name": "heartgold",
        "url": "https://pokeapi.co/api/v2/version/15/"
      }
    },
    {
      "game_index": 13,
      "version": {
        "name": "platinum",
        "url": "https://pokeapi.co/api/v2/version/14/"
      }
    },
    {
      "game_index": 13,
      "version": {
        "name": "pearl",
        "url": "https://pokeapi.co/api/v2/version/13/"
      }
    },
    {
      "game_index": 13,
      "version": {
        "name": "diamond",
        "url": "https://pokeapi.co/api/v2/version/12/"
      }
    },
    {
      "game_index": 13,
      "version": {
        "name": "leafgreen",
        "url": "https://pokeapi.co/api/v2/version/11/"
      }
    },
    {
      "game_index": 13,
      "version": {
        "name": "firered",
        "url": "https://pokeapi.co/api/v2/version/10/"
      }
    },
    {
      "game_index": 13,
      "version": {
        "name": "emerald",
        "url": "https://pokeapi.co/api/v2/version/9/"
      }
    },
    {
      "game_index": 13,
      "version": {
        "name": "sapphire",
        "url": "https://pokeapi.co/api/v2/version/8/"
      }
    },
    {
      "game_index": 13,
      "version": {
        "name": "ruby",
        "url": "https://pokeapi.co/api/v2/version/7/"
      }
    },
    {
      "game_index": 13,
      "version": {
        "name": "crystal",
        "url": "https://pokeapi.co/api/v2/version/6/"
      }
    },
    {
      "game_index": 13,
      "version": {
        "name": "silver",
        "url": "https://pokeapi.co/api/v2/version/5/"
      }
    },
    {
      "game_index": 13,
      "version": {
        "name": "gold",
        "url": "https://pokeapi.co/api/v2/version/4/"
      }
    },
    {
      "game_index": 112,
      "version": {
        "name": "yellow",
        "url": "https://pokeapi.co/api/v2/version/3/"
      }
    },
    {
      "game_index": 112,
      "version": {
        "name": "blue",
        "url": "https://pokeapi.co/api/v2/version/2/"
      }
    },
    {
      "game_index": 112,
      "version": {
        "name": "red",
        "url": "https://pokeapi.co/api/v2/version/1/"
      }
    }
  ],
  "held_items": [],
  "location_area_encounters": "https://pokeapi.co/api/v2/pokemon/13/encounters",
  "moves": [
    {
      "move": {
        "name": "poison-sting",
        "url": "https://pokeapi.co/api/v2/move/40/"
      },
      "version_group_details": [
        {
          "move_learn_method": {
            "name": "level-up",
            "url": "https://pokeapi.co/api/v2/move-learn-method/1/"
          },
          "version_group": {
            "name": "sun-moon",
            "url": "https://pokeapi.co/api/v2/version-group/17/"
          },
          "level_learned_at": 1
        },
        {
          "move_learn_method": {
            "name": "level-up",
            "url": "https://pokeapi.co/api/v2/move-learn-method/1/"
          },
          "version_group": {
            "name": "omega-ruby-alpha-sapphire",
            "url": "https://pokeapi.co/api/v2/version-group/16/"
          },
          "level_learned_at": 1
        },
        {
          "move_learn_method": {
            "name": "level-up",
            "url": "https://pokeapi.co/api/v2/move-learn-method/1/"
          },
          "version_group": {
            "name": "x-y",
            "url": "https://pokeapi.co/api/v2/version-group/15/"
          },
          "level_learned_at": 1
        },
        {
          "move_learn_method": {
            "name": "level-up",
            "url": "https://pokeapi.co/api/v2/move-learn-method/1/"
          },
          "version_group": {
            "name": "black-2-white-2",
            "url": "https://pokeapi.co/api/v2/version-group/14/"
          },
          "level_learned_at": 1
        },
        {
          "move_learn_method": {
            "name": "level-up",
            "url": "https://pokeapi.co/api/v2/move-learn-method/1/"
          },
          "version_group": {
            "name": "xd",
            "url": "https://pokeapi.co/api/v2/version-group/13/"
          },
          "level_learned_at": 1
        },
        {
          "move_learn_method": {
            "name": "level-up",
            "url": "https://pokeapi.co/api/v2/move-learn-method/1/"
          },
          "version_group": {
            "name": "colosseum",
            "url": "https://pokeapi.co/api/v2/version-group/12/"
          },
          "level_learned_at": 1
        },
        {
          "move_learn_method": {
            "name": "level-up",
            "url": "https://pokeapi.co/api/v2/move-learn-method/1/"
          },
          "version_group": {
            "name": "black-white",
            "url": "https://pokeapi.co/api/v2/version-group/11/"
          },
          "level_learned_at": 1
        },
        {
          "move_learn_method": {
            "name": "level-up",
            "url": "https://pokeapi.co/api/v2/move-learn-method/1/"
          },
          "version_group": {
            "name": "heartgold-soulsilver",
            "url": "https://pokeapi.co/api/v2/version-group/10/"
          },
          "level_learned_at": 1
        },
        {
          "move_learn_method": {
            "name": "level-up",
            "url": "https://pokeapi.co/api/v2/move-learn-method/1/"
          },
          "version_group": {
            "name": "platinum",
            "url": "https://pokeapi.co/api/v2/version-group/9/"
          },
          "level_learned_at": 1
        },
        {
          "move_learn_method": {
            "name": "level-up",
            "url": "https://pokeapi.co/api/v2/move-learn-method/1/"
          },
          "version_group": {
            "name": "diamond-pearl",
            "url": "https://pokeapi.co/api/v2/version-group/8/"
          },
          "level_learned_at": 1
        },
        {
          "move_learn_method": {
            "name": "level-up",
            "url": "https://pokeapi.co/api/v2/move-learn-method/1/"
          },
          "version_group": {
            "name": "firered-leafgreen",
            "url": "https://pokeapi.co/api/v2/version-group/7/"
          },
          "level_learned_at": 1
        },
        {
          "move_learn_method": {
            "name": "level-up",
            "url": "https://pokeapi.co/api/v2/move-learn-method/1/"
          },
          "version_group": {
            "name": "emerald",
            "url": "https://pokeapi.co/api/v2/version-group/6/"
          },
          "level_learned_at": 1
        },
        {
          "move_learn_method": {
            "name": "level-up",
            "url": "https://pokeapi.co/api/v2/move-learn-method/1/"
          },
          "version_group": {
            "name": "ruby-sapphire",
            "url": "https://pokeapi.co/api/v2/version-group/5/"
          },
          "level_learned_at": 1
        },
        {
          "move_learn_method": {
            "name": "level-up",
            "url": "https://pokeapi.co/api/v2/move-learn-method/1/"
          },
          "version_group": {
            "name": "crystal",
            "url": "https://pokeapi.co/api/v2/version-group/4/"
          },
          "level_learned_at": 1
        },
        {
          "move_learn_method": {
            "name": "level-up",
            "url": "https://pokeapi.co/api/v2/move-learn-method/1/"
          },
          "version_group": {
            "name": "gold-silver",
            "url": "https://pokeapi.co/api/v2/version-group/3/"
          },
          "level_learned_at": 1
        },
        {
          "move_learn_method": {
            "name": "level-up",
            "url": "https://pokeapi.co/api/v2/move-learn-method/1/"
          },
          "version_group": {
            "name": "yellow",
            "url": "https://pokeapi.co/api/v2/version-group/2/"
          },
          "level_learned_at": 1
        },
        {
          "move_learn_method": {
            "name": "level-up",
            "url": "https://pokeapi.co/api/v2/move-learn-method/1/"
          },
          "version_group": {
            "name": "red-blue",
            "url": "https://pokeapi.co/api/v2/version-group/1/"
          },
          "level_learned_at": 1
        }
      ]
    },
    {
      "move": {
        "name": "string-shot",
        "url": "https://pokeapi.co/api/v2/move/81/"
      },
      "version_group_details": [
        {
          "move_learn_method": {
            "name": "level-up",
            "url": "https://pokeapi.co/api/v2/move-learn-method/1/"
          },
          "version_group": {
            "name": "sun-moon",
            "url": "https://pokeapi.co/api/v2/version-group/17/"
          },
          "level_learned_at": 1
        },
        {
          "move_learn_method": {
            "name": "level-up",
            "url": "https://pokeapi.co/api/v2/move-learn-method/1/"
          },
          "version_group": {
            "name": "omega-ruby-alpha-sapphire",
            "url": "https://pokeapi.co/api/v2/version-group/16/"
          },
          "level_learned_at": 1
        },
        {
          "move_learn_method": {
            "name": "level-up",
            "url": "https://pokeapi.co/api/v2/move-learn-method/1/"
          },
          "version_group": {
            "name": "x-y",
            "url": "https://pokeapi.co/api/v2/version-group/15/"
          },
          "level_learned_at": 1
        },
        {
          "move_learn_method": {
            "name": "level-up",
            "url": "https://pokeapi.co/api/v2/move-learn-method/1/"
          },
          "version_group": {
            "name": "black-2-white-2",
            "url": "https://pokeapi.co/api/v2/version-group/14/"
          },
          "level_learned_at": 1
        },
        {
          "move_learn_method": {
            "name": "level-up",
            "url": "https://pokeapi.co/api/v2/move-learn-method/1/"
          },
          "version_group": {
            "name": "xd",
            "url": "https://pokeapi.co/api/v2/version-group/13/"
          },
          "level_learned_at": 1
        },
        {
          "move_learn_method": {
            "name": "level-up",
            "url": "https://pokeapi.co/api/v2/move-learn-method/1/"
          },
          "version_group": {
            "name": "colosseum",
            "url": "https://pokeapi.co/api/v2/version-group/12/"
          },
          "level_learned_at": 1
        },
        {
          "move_learn_method": {
            "name": "level-up",
            "url": "https://pokeapi.co/api/v2/move-learn-method/1/"
          },
          "version_group": {
            "name": "black-white",
            "url": "https://pokeapi.co/api/v2/version-group/11/"
          },
          "level_learned_at": 1
        },
        {
          "move_learn_method": {
            "name": "tutor",
            "url": "https://pokeapi.co/api/v2/move-learn-method/3/"
          },
          "version_group": {
            "name": "heartgold-soulsilver",
            "url": "https://pokeapi.co/api/v2/version-group/10/"
          },
          "level_learned_at": 0
        },
        {
          "move_learn_method": {
            "name": "level-up",
            "url": "https://pokeapi.co/api/v2/move-learn-method/1/"
          },
          "version_group": {
            "name": "heartgold-soulsilver",
            "url": "https://pokeapi.co/api/v2/version-group/10/"
          },
          "level_learned_at": 1
        },
        {
          "move_learn_method": {
            "name": "level-up",
            "url": "https://pokeapi.co/api/v2/move-learn-method/1/"
          },
          "version_group": {
            "name": "platinum",
            "url": "https://pokeapi.co/api/v2/version-group/9/"
          },
          "level_learned_at": 1
        },
        {
          "move_learn_method": {
            "name": "level-up",
            "url": "https://pokeapi.co/api/v2/move-learn-method/1/"
          },
          "version_group": {
            "name": "diamond-pearl",
            "url": "https://pokeapi.co/api/v2/version-group/8/"
          },
          "level_learned_at": 1
        },
        {
          "move_learn_method": {
            "name": "level-up",
            "url": "https://pokeapi.co/api/v2/move-learn-method/1/"
          },
          "version_group": {
            "name": "firered-leafgreen",
            "url": "https://pokeapi.co/api/v2/version-group/7/"
          },
          "level_learned_at": 1
        },
        {
          "move_learn_method": {
            "name": "level-up",
            "url": "https://pokeapi.co/api/v2/move-learn-method/1/"
          },
          "version_group": {
            "name": "emerald",
            "url": "https://pokeapi.co/api/v2/version-group/6/"
          },
          "level_learned_at": 1
        },
        {
          "move_learn_method": {
            "name": "level-up",
            "url": "https://pokeapi.co/api/v2/move-learn-method/1/"
          },
          "version_group": {
            "name": "ruby-sapphire",
            "url": "https://pokeapi.co/api/v2/version-group/5/"
          },
          "level_learned_at": 1
        },
        {
          "move_learn_method": {
            "name": "level-up",
            "url": "https://pokeapi.co/api/v2/move-learn-method/1/"
          },
          "version_group": {
            "name": "crystal",
            "url": "https://pokeapi.co/api/v2/version-group/4/"
          },
          "level_learned_at": 1
        },
        {
          "move_learn_method": {
            "name": "level-up",
            "url": "https://pokeapi.co/api/v2/move-learn-method/1/"
          },
          "version_group": {
            "name": "gold-silver",
            "url": "https://pokeapi.co/api/v2/version-group/3/"
          },
          "level_learned_at": 1
        },
        {
          "move_learn_method": {
            "name": "level-up",
            "url": "https://pokeapi.co/api/v2/move-learn-method/1/"
          },
          "version_group": {
            "name": "yellow",
            "url": "https://pokeapi.co/api/v2/version-group/2/"
          },
          "level_learned_at": 1
        },
        {
          "move_learn_method": {
            "name": "level-up",
            "url": "https://pokeapi.co/api/v2/move-learn-method/1/"
          },
          "version_group": {
            "name": "red-blue",
            "url": "https://pokeapi.co/api/v2/version-group/1/"
          },
          "level_learned_at": 1
        }
      ]
    },
    {
      "move": {
        "name": "bug-bite",
        "url": "https://pokeapi.co/api/v2/move/450/"
      },
      "version_group_details": [
        {
          "move_learn_method": {
            "name": "level-up",
            "url": "https://pokeapi.co/api/v2/move-learn-method/1/"
          },
          "version_group": {
            "name": "sun-moon",
            "url": "https://pokeapi.co/api/v2/version-group/17/"
          },
          "level_learned_at": 9
        },
        {
          "move_learn_method": {
            "name": "tutor",
            "url": "https://pokeapi.co/api/v2/move-learn-method/3/"
          },
          "version_group": {
            "name": "omega-ruby-alpha-sapphire",
            "url": "https://pokeapi.co/api/v2/version-group/16/"
          },
          "level_learned_at": 0
        },
        {
          "move_learn_method": {
            "name": "level-up",
            "url": "https://pokeapi.co/api/v2/move-learn-method/1/"
          },
          "version_group": {
            "name": "omega-ruby-alpha-sapphire",
            "url": "https://pokeapi.co/api/v2/version-group/16/"
          },
          "level_learned_at": 15
        },
        {
          "move_learn_method": {
            "name": "level-up",
            "url": "https://pokeapi.co/api/v2/move-learn-method/1/"
          },
          "version_group": {
            "name": "x-y",
            "url": "https://pokeapi.co/api/v2/version-group/15/"
          },
          "level_learned_at": 15
        },
        {
          "move_learn_method": {
            "name": "tutor",
            "url": "https://pokeapi.co/api/v2/move-learn-method/3/"
          },
          "version_group": {
            "name": "black-2-white-2",
            "url": "https://pokeapi.co/api/v2/version-group/14/"
          },
          "level_learned_at": 0
        },
        {
          "move_learn_method": {
            "name": "level-up",
            "url": "https://pokeapi.co/api/v2/move-learn-method/1/"
          },
          "version_group": {
            "name": "black-2-white-2",
            "url": "https://pokeapi.co/api/v2/version-group/14/"
          },
          "level_learned_at": 15
        },
        {
          "move_learn_method": {
            "name": "level-up",
            "url": "https://pokeapi.co/api/v2/move-learn-method/1/"
          },
          "version_group": {
            "name": "black-white",
            "url": "https://pokeapi.co/api/v2/version-group/11/"
          },
          "level_learned_at": 15
        },
        {
          "move_learn_method": {
            "name": "tutor",
            "url": "https://pokeapi.co/api/v2/move-learn-method/3/"
          },
          "version_group": {
            "name": "heartgold-soulsilver",
            "url": "https://pokeapi.co/api/v2/version-group/10/"
          },
          "level_learned_at": 0
        },
        {
          "move_learn_method": {
            "name": "level-up",
            "url": "https://pokeapi.co/api/v2/move-learn-method/1/"
          },
          "version_group": {
            "name": "heartgold-soulsilver",
            "url": "https://pokeapi.co/api/v2/version-group/10/"
          },
          "level_learned_at": 15
        },
        {
          "move_learn_method": {
            "name": "level-up",
            "url": "https://pokeapi.co/api/v2/move-learn-method/1/"
          },
          "version_group": {
            "name": "platinum",
            "url": "https://pokeapi.co/api/v2/version-group/9/"
          },
          "level_learned_at": 15
        }
      ]
    },
    {
      "move": {
        "name": "electroweb",
        "url": "https://pokeapi.co/api/v2/move/527/"
      },
      "version_group_details": [
        {
          "move_learn_method": {
            "name": "tutor",
            "url": "https://pokeapi.co/api/v2/move-learn-method/3/"
          },
          "version_group": {
            "name": "omega-ruby-alpha-sapphire",
            "url": "https://pokeapi.co/api/v2/version-group/16/"
          },
          "level_learned_at": 0
        },
        {
          "move_learn_method": {
            "name": "tutor",
            "url": "https://pokeapi.co/api/v2/move-learn-method/3/"
          },
          "version_group": {
            "name": "black-2-white-2",
            "url": "https://pokeapi.co/api/v2/version-group/14/"
          },
          "level_learned_at": 0
        }
      ]
    }
  ],
  "sprites": {
    "back_female": null,
    "back_shiny_female": null,
    "back_default": "https://raw.githubusercontent.com/PokeAPI/sprites/master/sprites/pokemon/back/13.png",
    "front_female": null,
    "front_shiny_female": null,
    "back_shiny": "https://raw.githubusercontent.com/PokeAPI/sprites/master/sprites/pokemon/back/shiny/13.png",
    "front_default": "https://raw.githubusercontent.com/PokeAPI/sprites/master/sprites/pokemon/13.png",
    "front_shiny": "https://raw.githubusercontent.com/PokeAPI/sprites/master/sprites/pokemon/shiny/13.png"
  },
  "species": {
    "name": "weedle",
    "url": "https://pokeapi.co/api/v2/pokemon-species/13/"
  },
  "stats": [
    {
      "stat": {
        "name": "speed",
        "url": "https://pokeapi.co/api/v2/stat/6/"
      },
      "effort": 1,
      "base_stat": 50
    },
    {
      "stat": {
        "name": "special-defense",
        "url": "https://pokeapi.co/api/v2/stat/5/"
      },
      "effort": 0,
      "base_stat": 20
    },
    {
      "stat": {
        "name": "special-attack",
        "url": "https://pokeapi.co/api/v2/stat/4/"
      },
      "effort": 0,
      "base_stat": 20
    },
    {
      "stat": {
        "name": "defense",
        "url": "https://pokeapi.co/api/v2/stat/3/"
      },
      "effort": 0,
      "base_stat": 30
    },
    {
      "stat": {
        "name": "attack",
        "url": "https://pokeapi.co/api/v2/stat/2/"
      },
      "effort": 0,
      "base_stat": 35
    },
    {
      "stat": {
        "name": "hp",
        "url": "https://pokeapi.co/api/v2/stat/1/"
      },
      "effort": 0,
      "base_stat": 40
    }
  ],
  "types": [
    {
      "slot": 2,
      "type": {
        "name": "poison",
        "url": "https://pokeapi.co/api/v2/type/4/"
      }
    },
    {
      "slot": 1,
      "type": {
        "name": "bug",
        "url": "https://pokeapi.co/api/v2/type/7/"
      }
    }
  ]
}